// Jest Snapshot v1, https://goo.gl/fbAQLP

exports[`Design.vue Load report button enabled if reports exist 1`] = `
<section>
  <div
    class="columns is-vcentered"
  >
    <div
      class="column is-one-quarter"
    >
      <div
        class="is-grouped is-pulled-left"
      >
        <div>
          <em>
            Untitled Report
          </em>
        </div>
      </div>
    </div>
     
    <div
      class="column"
    >
      <div
        class="field is-grouped is-pulled-right"
      >
        <!---->
         
        <div
          class="control field"
        >
          <p
            class="control"
          >
            <!---->
          </p>
           
          <p
            class="control"
          >
            <div
              class="dropdown is-right"
            >
              <div
                class="dropdown-trigger"
              >
                <button
                  aria-controls="dropdown-save-report"
                  aria-haspopup="true"
                  class="button"
                  disabled="disabled"
                >
                  <span>
                    Save Report
                  </span>
                   
                  <span
                    class="icon is-small"
                  >
                    <font-awesome-icon-stub
                      icon="caret-down"
                    />
                  </span>
                </button>
              </div>
               
              <div
                class="dropdown-menu"
                id="dropdown-save-report"
                role="menu"
              >
                <div
                  class="dropdown-content"
                >
                  <div
                    class="dropdown-item"
                  >
                    <div
                      class="field"
                    >
                      <!---->
                       
                      <div
                        class="control"
                      >
                        <input
                          class="input"
                          placeholder="Name your report"
                          type="text"
                        />
                      </div>
                    </div>
                     
                    <div
                      class="buttons is-right"
                    >
                      <button
                        class="button is-small is-text"
                        data-dropdown-auto-close=""
                      >
                        
                      Cancel
                    
                      </button>
                       
                      <button
                        class="button is-small"
                        data-dropdown-auto-close=""
                        disabled="disabled"
                      >
                        
                      Save
                    
                      </button>
                    </div>
                  </div>
                </div>
              </div>
            </div>
          </p>
        </div>
         
        <p
          class="control"
        >
          <div
            class="dropdown is-right"
          >
            <div
              class="dropdown-trigger"
            >
              <button
                aria-controls="dropdown-reports"
                aria-haspopup="true"
                class="button"
              >
                <span>
                  Reports
                </span>
                 
                <span
                  class="icon is-small"
                >
                  <font-awesome-icon-stub
                    icon="caret-down"
                  />
                </span>
              </button>
            </div>
             
            <div
              class="dropdown-menu"
              id="dropdown-reports"
              role="menu"
            >
              <div
                class="dropdown-content"
              >
                <a
                  class="dropdown-item"
                  data-dropdown-auto-close=""
                >
                  
                
              
                </a>
              </div>
            </div>
          </div>
        </p>
         
        <div
          class="control"
        >
          <div
            class="select"
          >
            <select
              name="connection"
            />
          </div>
        </div>
      </div>
    </div>
  </div>
   
  <div
    class="columns"
  >
    <aside
      class="column is-one-quarter"
    >
      <div
        class="box"
      >
        <div
          class="columns is-vcentered"
        >
          <div
            class="column is-two-fifths"
          >
            <h2
              class="title is-5"
            >
              Query
            </h2>
          </div>
           
          <div
            class="column is-three-fifths"
          >
            <div
              class="buttons is-right"
            >
              <div
                class="dropdown"
              >
                <div
                  class="dropdown-trigger"
                >
                  <button
                    aria-controls="dropdown-sql"
                    aria-haspopup="true"
                    class="button is-text is-small"
                    disabled="disabled"
                  >
                    <span>
                      SQL
                    </span>
                     
                    <!---->
                  </button>
                </div>
                 
                <div
                  class="dropdown-menu"
                  id="dropdown-sql"
                  role="menu"
                >
                  <div
                    class="dropdown-content"
                  >
                    <div
                      class="level"
                    >
                      <div
                        class="level-item"
                      >
                        <code>
                          
                        </code>
                      </div>
                    </div>
                  </div>
                </div>
              </div>
               
              <button
                class="button is-success"
                disabled="disabled"
              >
                
                Run
              
              </button>
            </div>
          </div>
        </div>
         
        <div
          class="columns is-vcentered"
        >
          <div
            class="column"
          >
            <div
              class="field"
            >
              <label
                class="label"
              >
                Limit
              </label>
               
              <div
                class="control is-expanded"
              >
                <input
                  class="input is-small has-text-interactive-secondary"
                  placeholder="Limit"
                  type="text"
                />
              </div>
            </div>
          </div>
           
          <div
            class="column"
          >
            <div
              class="field"
            >
              <label
                class="label"
              >
                <span>
                  Filters
                </span>
                 
                <!---->
              </label>
               
              <div
                class="control is-expanded"
              >
                <div
                  class="dropdown is-fullwidth"
                >
                  <div
                    class="dropdown-trigger"
                  >
                    <button
                      aria-controls="dropdown-none"
                      aria-haspopup="true"
                      class="button is-small "
                    >
                      <span>
                        None
                      </span>
                       
                      <span
                        class="icon is-small"
                      >
                        <font-awesome-icon-stub
                          icon="caret-down"
                        />
                      </span>
                    </button>
                  </div>
                   
                  <div
                    class="dropdown-menu dropdown-menu-600"
                    id="dropdown-none"
                    role="menu"
                  >
                    <div
                      class="dropdown-content"
                    >
                      <div
                        class="dropdown-item"
                      >
                        <div>
                          <table
                            class="table is-size-7 is-fullwidth is-narrow is-hoverable"
                          >
                            <thead>
                              <tr>
                                <th>
                                  <span>
                                    Attribute
                                  </span>
                                   
                                  <span
                                    class="icon has-text-grey-light tooltip is-tooltip-right"
                                    data-tooltip="The column or aggregate to filter."
                                  >
                                    <font-awesome-icon-stub
                                      icon="info-circle"
                                    />
                                  </span>
                                </th>
                                 
                                <th
                                  class="has-text-centered"
                                >
                                  <span>
                                    Operation
                                  </span>
                                   
                                  <span
                                    class="icon has-text-grey-light tooltip"
                                    data-tooltip="The filter expression for the selected column or aggregate."
                                  >
                                    <font-awesome-icon-stub
                                      icon="info-circle"
                                    />
                                  </span>
                                </th>
                                 
                                <th
                                  class="has-text-centered"
                                >
                                  <span>
                                    Value
                                  </span>
                                   
                                  <span
                                    class="icon has-text-grey-light tooltip"
                                    data-tooltip="The value to operate on when filtering."
                                  >
                                    <font-awesome-icon-stub
                                      icon="info-circle"
                                    />
                                  </span>
                                </th>
                                 
                                <th
                                  class="has-text-right"
                                >
                                  <span>
                                    Actions
                                  </span>
                                </th>
                              </tr>
                            </thead>
                             
                            <tbody>
                              <tr>
                                <td>
                                  <p
                                    class="control is-expanded"
                                  >
                                    <span
                                      class="select is-fullwidth is-small"
                                    >
                                      <select />
                                    </span>
                                  </p>
                                </td>
                                 
                                <td>
                                  <p
                                    class="control is-expanded"
                                  >
                                    <span
                                      class="select is-fullwidth is-small"
                                    >
                                      <select />
                                    </span>
                                  </p>
                                </td>
                                 
                                <td>
                                  <p
                                    class="control is-expanded"
                                  >
                                    <input
                                      class="input is-small"
                                      placeholder="Filter value"
                                      type="text"
                                    />
                                  </p>
                                </td>
                                 
                                <td>
                                  <div
                                    class="control"
                                  >
                                    <button
                                      class="button is-small is-fullwidth is-interactive-primary is-outlined"
                                      disabled="disabled"
                                    >
                                      
              Add
            
                                    </button>
                                  </div>
                                </td>
                              </tr>
                               
                              <!---->
                            </tbody>
                          </table>
                        </div>
                      </div>
                    </div>
                  </div>
                </div>
              </div>
            </div>
          </div>
        </div>
         
        <div
          class="field"
        >
          <label
            class="label"
          >
            <span>
              Attributes
            </span>
             
            <!---->
          </label>
        </div>
         
        <nav
          class="panel is-unselectable"
        >
          <a
            class="panel-block
              has-background-white-bis
              has-text-grey
              is-expandable"
          >
            <span
              class="icon is-small panel-icon"
            >
              <font-awesome-icon-stub
                icon="table"
              />
            </span>
            
              
            
          </a>
           
          <!---->
             
          <!---->
            
          <!---->
        </nav>
      </div>
    </aside>
     
    <div
      class="column is-three-quarters"
    >
      <div
        class="box"
      >
        <div
          class="columns is-vcentered"
        >
          <div
            class="column"
          >
            <h2
              class="title is-5"
            >
              <span>
                Results
              </span>
               
              <!---->
            </h2>
          </div>
           
          <div
            class="column"
          >
            <div
              class="buttons has-addons is-right"
            >
              <button
                class="button tooltip is-active has-text-interactive-secondary"
                data-tooltip="Bar chart"
                disabled="disabled"
              >
                <span
                  class="icon is-small"
                >
                  <font-awesome-icon-stub
                    icon="chart-bar"
                  />
                </span>
              </button>
               
              <button
                class="button tooltip has-text-grey-light"
                data-tooltip="Line chart"
                disabled="disabled"
              >
                <span
                  class="icon is-small"
                >
                  <font-awesome-icon-stub
                    icon="chart-line"
                  />
                </span>
              </button>
               
              <button
                class="button tooltip has-text-grey-light"
                data-tooltip="Area chart"
                disabled="disabled"
              >
                <span
                  class="icon is-small"
                >
                  <font-awesome-icon-stub
                    icon="chart-area"
                  />
                </span>
              </button>
               
              <button
                class="button tooltip has-text-grey-light"
                data-tooltip="Scatter chart"
                disabled="disabled"
              >
                <span
                  class="icon is-small"
                >
                  <font-awesome-icon-stub
                    icon="dot-circle"
                  />
                </span>
              </button>
            </div>
          </div>
        </div>
         
        <div>
          <!---->
           
          <div>
            <div
              class="box is-radiusless is-shadowless has-text-centered"
            >
              <p>
                
                Run a query with at least one aggregate selected or load a
                report
              
              </p>
            </div>
          </div>
        </div>
         
        <hr />
         
        <div>
          <!---->
           
          <div
            class="result-data"
          >
            <div
              class="notification is-italic"
            >
              
    No results
  
            </div>
          </div>
        </div>
         
        <!---->
      </div>
    </div>
  </div>
</section>
`;

exports[`Design.vue Run Query button enabled and SQL tab focused and displayed if selection(s) are made 1`] = `
<section>
  <div
    class="columns is-vcentered"
  >
    <div
      class="column is-one-quarter"
    >
      <div
        class="is-grouped is-pulled-left"
      >
        <div>
          <em>
            Untitled Report
          </em>
        </div>
      </div>
    </div>
     
    <div
      class="column"
    >
      <div
        class="field is-grouped is-pulled-right"
      >
        <!---->
         
        <div
          class="control field"
        >
          <p
            class="control"
          >
            <!---->
          </p>
           
          <p
            class="control"
          >
            <div
              class="dropdown is-right"
            >
              <div
                class="dropdown-trigger"
              >
                <button
                  aria-controls="dropdown-save-report"
                  aria-haspopup="true"
                  class="button"
                  disabled="disabled"
                >
                  <span>
                    Save Report
                  </span>
                   
                  <span
                    class="icon is-small"
                  >
                    <font-awesome-icon-stub
                      icon="caret-down"
                    />
                  </span>
                </button>
              </div>
               
              <div
                class="dropdown-menu"
                id="dropdown-save-report"
                role="menu"
              >
                <div
                  class="dropdown-content"
                >
                  <div
                    class="dropdown-item"
                  >
                    <div
                      class="field"
                    >
                      <!---->
                       
                      <div
                        class="control"
                      >
                        <input
                          class="input"
                          placeholder="Name your report"
                          type="text"
                        />
                      </div>
                    </div>
                     
                    <div
                      class="buttons is-right"
                    >
                      <button
                        class="button is-small is-text"
                        data-dropdown-auto-close=""
                      >
                        
                      Cancel
                    
                      </button>
                       
                      <button
                        class="button is-small"
                        data-dropdown-auto-close=""
                        disabled="disabled"
                      >
                        
                      Save
                    
                      </button>
                    </div>
                  </div>
                </div>
              </div>
            </div>
          </p>
        </div>
         
        <p
          class="control"
        >
          <div
            class="dropdown is-right"
          >
            <div
              class="dropdown-trigger"
            >
              <button
                aria-controls="dropdown-reports"
                aria-haspopup="true"
                class="button"
                disabled="disabled"
              >
                <span>
                  Reports
                </span>
                 
                <span
                  class="icon is-small"
                >
                  <font-awesome-icon-stub
                    icon="caret-down"
                  />
                </span>
              </button>
            </div>
             
            <div
              class="dropdown-menu"
              id="dropdown-reports"
              role="menu"
            >
              <div
                class="dropdown-content"
              />
            </div>
          </div>
        </p>
         
        <div
          class="control"
        >
          <div
            class="select"
          >
            <select
              name="connection"
            />
          </div>
        </div>
      </div>
    </div>
  </div>
   
  <div
    class="columns"
  >
    <aside
      class="column is-one-quarter"
    >
      <div
        class="box"
      >
        <div
          class="columns is-vcentered"
        >
          <div
            class="column is-two-fifths"
          >
            <h2
              class="title is-5"
            >
              Query
            </h2>
          </div>
           
          <div
            class="column is-three-fifths"
          >
            <div
              class="buttons is-right"
            >
              <div
                class="dropdown"
              >
                <div
                  class="dropdown-trigger"
                >
                  <button
                    aria-controls="dropdown-sql"
                    aria-haspopup="true"
                    class="button is-text is-small"
                  >
                    <span>
                      SQL
                    </span>
                     
                    <!---->
                  </button>
                </div>
                 
                <div
                  class="dropdown-menu"
                  id="dropdown-sql"
                  role="menu"
                >
                  <div
                    class="dropdown-content"
                  >
                    <div
                      class="level"
                    >
                      <div
                        class="level-item"
                      >
                        <code>
                          SELECT
  COALESCE(COUNT("region"."id"), 0) "region.count"
FROM
  "region" "region"
LIMIT
  3;
                        </code>
                      </div>
                    </div>
                  </div>
                </div>
              </div>
               
              <button
                class="button is-success"
              >
                
                Run
              
              </button>
            </div>
          </div>
        </div>
         
        <div
          class="columns is-vcentered"
        >
          <div
            class="column"
          >
            <div
              class="field"
            >
              <label
                class="label"
              >
                Limit
              </label>
               
              <div
                class="control is-expanded"
              >
                <input
                  class="input is-small has-text-interactive-secondary"
                  placeholder="Limit"
                  type="text"
                />
              </div>
            </div>
          </div>
           
          <div
            class="column"
          >
            <div
              class="field"
            >
              <label
                class="label"
              >
                <span>
                  Filters
                </span>
                 
                <!---->
              </label>
               
              <div
                class="control is-expanded"
              >
                <div
                  class="dropdown is-fullwidth"
                >
                  <div
                    class="dropdown-trigger"
                  >
                    <button
                      aria-controls="dropdown-none"
                      aria-haspopup="true"
                      class="button is-small "
                    >
                      <span>
                        None
                      </span>
                       
                      <span
                        class="icon is-small"
                      >
                        <font-awesome-icon-stub
                          icon="caret-down"
                        />
                      </span>
                    </button>
                  </div>
                   
                  <div
                    class="dropdown-menu dropdown-menu-600"
                    id="dropdown-none"
                    role="menu"
                  >
                    <div
                      class="dropdown-content"
                    >
                      <div
                        class="dropdown-item"
                      >
                        <div>
                          <table
                            class="table is-size-7 is-fullwidth is-narrow is-hoverable"
                          >
                            <thead>
                              <tr>
                                <th>
                                  <span>
                                    Attribute
                                  </span>
                                   
                                  <span
                                    class="icon has-text-grey-light tooltip is-tooltip-right"
                                    data-tooltip="The column or aggregate to filter."
                                  >
                                    <font-awesome-icon-stub
                                      icon="info-circle"
                                    />
                                  </span>
                                </th>
                                 
                                <th
                                  class="has-text-centered"
                                >
                                  <span>
                                    Operation
                                  </span>
                                   
                                  <span
                                    class="icon has-text-grey-light tooltip"
                                    data-tooltip="The filter expression for the selected column or aggregate."
                                  >
                                    <font-awesome-icon-stub
                                      icon="info-circle"
                                    />
                                  </span>
                                </th>
                                 
                                <th
                                  class="has-text-centered"
                                >
                                  <span>
                                    Value
                                  </span>
                                   
                                  <span
                                    class="icon has-text-grey-light tooltip"
                                    data-tooltip="The value to operate on when filtering."
                                  >
                                    <font-awesome-icon-stub
                                      icon="info-circle"
                                    />
                                  </span>
                                </th>
                                 
                                <th
                                  class="has-text-right"
                                >
                                  <span>
                                    Actions
                                  </span>
                                </th>
                              </tr>
                            </thead>
                             
                            <tbody>
                              <tr>
                                <td>
                                  <p
                                    class="control is-expanded"
                                  >
                                    <span
                                      class="select is-fullwidth is-small"
                                    >
                                      <select />
                                    </span>
                                  </p>
                                </td>
                                 
                                <td>
                                  <p
                                    class="control is-expanded"
                                  >
                                    <span
                                      class="select is-fullwidth is-small"
                                    >
                                      <select />
                                    </span>
                                  </p>
                                </td>
                                 
                                <td>
                                  <p
                                    class="control is-expanded"
                                  >
                                    <input
                                      class="input is-small"
                                      placeholder="Filter value"
                                      type="text"
                                    />
                                  </p>
                                </td>
                                 
                                <td>
                                  <div
                                    class="control"
                                  >
                                    <button
                                      class="button is-small is-fullwidth is-interactive-primary is-outlined"
                                      disabled="disabled"
                                    >
                                      
              Add
            
                                    </button>
                                  </div>
                                </td>
                              </tr>
                               
                              <!---->
                            </tbody>
                          </table>
                        </div>
                      </div>
                    </div>
                  </div>
                </div>
              </div>
            </div>
          </div>
        </div>
         
        <div
          class="field"
        >
          <label
            class="label"
          >
            <span>
              Attributes
            </span>
             
            <!---->
          </label>
        </div>
         
        <nav
          class="panel is-unselectable"
        >
          <a
            class="panel-block
              has-background-white-bis
              has-text-grey
              is-expandable"
          >
            <span
              class="icon is-small panel-icon"
            >
              <font-awesome-icon-stub
                icon="table"
              />
            </span>
            
              
            
          </a>
           
          <!---->
             
          <!---->
            
          <!---->
        </nav>
      </div>
    </aside>
     
    <div
      class="column is-three-quarters"
    >
      <div
        class="box"
      >
        <div
          class="columns is-vcentered"
        >
          <div
            class="column"
          >
            <h2
              class="title is-5"
            >
              <span>
                Results
              </span>
               
              <!---->
            </h2>
          </div>
           
          <div
            class="column"
          >
            <div
              class="buttons has-addons is-right"
            >
              <button
                class="button tooltip is-active has-text-interactive-secondary"
                data-tooltip="Bar chart"
                disabled="disabled"
              >
                <span
                  class="icon is-small"
                >
                  <font-awesome-icon-stub
                    icon="chart-bar"
                  />
                </span>
              </button>
               
              <button
                class="button tooltip has-text-grey-light"
                data-tooltip="Line chart"
                disabled="disabled"
              >
                <span
                  class="icon is-small"
                >
                  <font-awesome-icon-stub
                    icon="chart-line"
                  />
                </span>
              </button>
               
              <button
                class="button tooltip has-text-grey-light"
                data-tooltip="Area chart"
                disabled="disabled"
              >
                <span
                  class="icon is-small"
                >
                  <font-awesome-icon-stub
                    icon="chart-area"
                  />
                </span>
              </button>
               
              <button
                class="button tooltip has-text-grey-light"
                data-tooltip="Scatter chart"
                disabled="disabled"
              >
                <span
                  class="icon is-small"
                >
                  <font-awesome-icon-stub
                    icon="dot-circle"
                  />
                </span>
              </button>
            </div>
          </div>
        </div>
         
        <div>
          <!---->
           
          <div>
            <div
              class="box is-radiusless is-shadowless has-text-centered"
            >
              <p>
                
                Run a query with at least one aggregate selected or load a
                report
              
              </p>
            </div>
          </div>
        </div>
         
        <hr />
         
        <div>
          <!---->
           
          <div
            class="result-data"
          >
            <div
              class="notification is-italic"
            >
              
    No results
  
            </div>
          </div>
        </div>
         
        <!---->
      </div>
    </div>
  </div>
</section>
`;

exports[`Design.vue Save report button enabled if query has ran 1`] = `
<section>
  <div
    class="columns is-vcentered"
  >
    <div
      class="column is-one-quarter"
    >
      <div
        class="is-grouped is-pulled-left"
      >
        <div>
          <em>
            Untitled Report
          </em>
        </div>
      </div>
    </div>
     
    <div
      class="column"
    >
      <div
        class="field is-grouped is-pulled-right"
      >
        <!---->
         
        <div
          class="control field"
        >
          <p
            class="control"
          >
            <!---->
          </p>
           
          <p
            class="control"
          >
            <dropdown-stub
              iconclose="caret-up"
              iconopen="caret-down"
              isrightaligned="true"
              label="Save Report"
            >
              <div
                class="dropdown-content"
              >
                <div
                  class="dropdown-item"
                >
                  <div
                    class="field"
                  >
                    <!---->
                     
                    <div
                      class="control"
                    >
                      <input
                        class="input"
                        placeholder="Name your report"
                        type="text"
                      />
                    </div>
                  </div>
                   
                  <div
                    class="buttons is-right"
                  >
                    <button
                      class="button is-small is-text"
                      data-dropdown-auto-close=""
                    >
                      
                      Cancel
                    
                    </button>
                     
                    <button
                      class="button is-small"
                      data-dropdown-auto-close=""
                      disabled="disabled"
                    >
                      
                      Save
                    
                    </button>
                  </div>
                </div>
              </div>
            </dropdown-stub>
          </p>
        </div>
         
        <p
          class="control"
        >
          <dropdown-stub
            disabled="true"
            iconclose="caret-up"
            iconopen="caret-down"
            isrightaligned="true"
            label="Reports"
          >
            <div
              class="dropdown-content"
            />
          </dropdown-stub>
        </p>
         
        <div
          class="control"
        >
          <div
            class="select"
          >
            <select
              name="connection"
            />
          </div>
        </div>
      </div>
    </div>
  </div>
   
  <div
    class="columns"
  >
    <aside
      class="column is-one-quarter"
    >
      <div
        class="box"
      >
        <div
          class="columns is-vcentered"
        >
          <div
            class="column is-two-fifths"
          >
            <h2
              class="title is-5"
            >
              Query
            </h2>
          </div>
           
          <div
            class="column is-three-fifths"
          >
            <div
              class="buttons is-right"
            >
              <dropdown-stub
                buttonclasses="is-text is-small"
                iconclose="caret-up"
                iconopen="caret-down"
                isiconremoved="true"
                label="SQL"
              >
                <div
                  class="dropdown-content"
                >
                  <div
                    class="level"
                  >
                    <div
                      class="level-item"
                    >
                      <code>
                        SELECT
  COALESCE(COUNT("region"."id"), 0) "region.count"
FROM
  "region" "region"
LIMIT
  3;
                      </code>
                    </div>
                  </div>
                </div>
              </dropdown-stub>
               
              <button
                class="button is-success"
              >
                
                Run
              
              </button>
            </div>
          </div>
        </div>
         
        <div
          class="columns is-vcentered"
        >
          <div
            class="column"
          >
            <div
              class="field"
            >
              <label
                class="label"
              >
                Limit
              </label>
               
              <div
                class="control is-expanded"
              >
                <input
                  class="input is-small has-text-interactive-secondary"
                  placeholder="Limit"
                  type="text"
                />
              </div>
            </div>
          </div>
           
          <div
            class="column"
          >
            <div
              class="field"
            >
              <label
                class="label"
              >
                <span>
                  Filters
                </span>
                 
                <!---->
              </label>
               
              <div
                class="control is-expanded"
              >
                <dropdown-stub
                  buttonclasses="is-small "
                  iconclose="caret-up"
                  iconopen="caret-down"
                  isfullwidth="true"
                  label="None"
                  menuclasses="dropdown-menu-600"
                >
                  <div
                    class="dropdown-content"
                  >
                    <div
                      class="dropdown-item"
                    >
                      <queryfilters-stub />
                    </div>
                  </div>
                </dropdown-stub>
              </div>
            </div>
          </div>
        </div>
         
        <div
          class="field"
        >
          <label
            class="label"
          >
            <span>
              Attributes
            </span>
             
            <!---->
          </label>
        </div>
         
        <nav
          class="panel is-unselectable"
        >
          <a
            class="panel-block
              has-background-white-bis
              has-text-grey
              is-expandable"
          >
            <span
              class="icon is-small panel-icon"
            >
              <font-awesome-icon
                icon="table"
              />
            </span>
            
              
            
          </a>
           
          <!---->
             
          <!---->
            
          <!---->
        </nav>
      </div>
    </aside>
     
    <div
      class="column is-three-quarters"
    >
      <div
        class="box"
      >
        <div
          class="columns is-vcentered"
        >
          <div
            class="column"
          >
            <h2
              class="title is-5"
            >
              <span>
                Results
              </span>
               
              <span
                class="has-text-weight-light has-text-grey-light is-size-7"
              >
                (1)
              </span>
            </h2>
          </div>
           
          <div
            class="column"
          >
            <div
              class="buttons has-addons is-right"
            >
              <button
                class="button tooltip is-active has-text-interactive-secondary"
                data-tooltip="Bar chart"
              >
                <span
                  class="icon is-small"
                >
                  <font-awesome-icon
                    icon="chart-bar"
                  />
                </span>
              </button>
               
              <button
                class="button tooltip has-text-grey-light"
                data-tooltip="Line chart"
              >
                <span
                  class="icon is-small"
                >
                  <font-awesome-icon
                    icon="chart-line"
                  />
                </span>
              </button>
               
              <button
                class="button tooltip has-text-grey-light"
                data-tooltip="Area chart"
              >
                <span
                  class="icon is-small"
                >
                  <font-awesome-icon
                    icon="chart-area"
                  />
                </span>
              </button>
               
              <button
                class="button tooltip has-text-grey-light"
                data-tooltip="Scatter chart"
              >
                <span
                  class="icon is-small"
                >
                  <font-awesome-icon
                    icon="dot-circle"
                  />
                </span>
              </button>
            </div>
          </div>
        </div>
         
        <div>
          <div
            class="chart-toggles"
          >
            <chart-stub
              charttype="BarChart"
              resultaggregates="region.count"
              results="[object Object]"
            />
          </div>
           
          <!---->
        </div>
         
        <hr />
         
        <div>
          <!---->
           
          <resulttable-stub />
        </div>
         
        <!---->
      </div>
    </div>
  </div>
</section>
`;

exports[`Design.vue a loaded report renders report name, selections, chart, SQL, and results where the Save, Load, and Run Query buttons are enabled 1`] = `
<section>
  <div
    class="columns is-vcentered"
  >
    <div
      class="column is-one-quarter"
    >
      <div
        class="is-grouped is-pulled-left"
      >
        <div>
          <em>
            Untitled Report
          </em>
        </div>
      </div>
    </div>
     
    <div
      class="column"
    >
      <div
        class="field is-grouped is-pulled-right"
      >
        <!---->
         
        <div
          class="control field"
        >
          <p
            class="control"
          >
            <!---->
          </p>
           
          <p
            class="control"
          >
            <dropdown-stub
              iconclose="caret-up"
              iconopen="caret-down"
              isrightaligned="true"
              label="Save Report"
            >
              <div
                class="dropdown-content"
              >
                <div
                  class="dropdown-item"
                >
                  <div
                    class="field"
                  >
                    <!---->
                     
                    <div
                      class="control"
                    >
                      <input
                        class="input"
                        placeholder="Name your report"
                        type="text"
                      />
                    </div>
                  </div>
                   
                  <div
                    class="buttons is-right"
                  >
                    <button
                      class="button is-small is-text"
                      data-dropdown-auto-close=""
                    >
                      
                      Cancel
                    
                    </button>
                     
                    <button
                      class="button is-small"
                      data-dropdown-auto-close=""
                      disabled="disabled"
                    >
                      
                      Save
                    
                    </button>
                  </div>
                </div>
              </div>
            </dropdown-stub>
          </p>
        </div>
         
        <p
          class="control"
        >
          <dropdown-stub
            iconclose="caret-up"
            iconopen="caret-down"
            isrightaligned="true"
            label="Reports"
          >
            <div
              class="dropdown-content"
            >
              <a
                class="dropdown-item"
                data-dropdown-auto-close=""
              >
                
                
              
              </a>
            </div>
          </dropdown-stub>
        </p>
         
        <div
          class="control"
        >
          <div
            class="select"
          >
            <select
              name="connection"
            />
          </div>
        </div>
      </div>
    </div>
  </div>
   
  <div
    class="columns"
  >
    <aside
      class="column is-one-quarter"
    >
      <div
        class="box"
      >
        <div
          class="columns is-vcentered"
        >
          <div
            class="column is-two-fifths"
          >
            <h2
              class="title is-5"
            >
              Query
            </h2>
          </div>
           
          <div
            class="column is-three-fifths"
          >
            <div
              class="buttons is-right"
            >
              <dropdown-stub
                buttonclasses="is-text is-small"
                disabled="true"
                iconclose="caret-up"
                iconopen="caret-down"
                isiconremoved="true"
                label="SQL"
              >
                <div
                  class="dropdown-content"
                >
                  <div
                    class="level"
                  >
                    <div
                      class="level-item"
                    >
                      <code>
                        
                      </code>
                    </div>
                  </div>
                </div>
              </dropdown-stub>
               
              <button
                class="button is-success"
                disabled="disabled"
              >
                
                Run
              
              </button>
            </div>
          </div>
        </div>
         
        <div
          class="columns is-vcentered"
        >
          <div
            class="column"
          >
            <div
              class="field"
            >
              <label
                class="label"
              >
                Limit
              </label>
               
              <div
                class="control is-expanded"
              >
                <input
                  class="input is-small has-text-interactive-secondary"
                  placeholder="Limit"
                  type="text"
                />
              </div>
            </div>
          </div>
           
          <div
            class="column"
          >
            <div
              class="field"
            >
              <label
                class="label"
              >
                <span>
                  Filters
                </span>
                 
                <!---->
              </label>
               
              <div
                class="control is-expanded"
              >
                <dropdown-stub
                  buttonclasses="is-small "
                  iconclose="caret-up"
                  iconopen="caret-down"
                  isfullwidth="true"
                  label="None"
                  menuclasses="dropdown-menu-600"
                >
                  <div
                    class="dropdown-content"
                  >
                    <div
                      class="dropdown-item"
                    >
                      <queryfilters-stub />
                    </div>
                  </div>
                </dropdown-stub>
              </div>
            </div>
          </div>
        </div>
         
        <div
          class="field"
        >
          <label
            class="label"
          >
            <span>
              Attributes
            </span>
             
            <!---->
          </label>
        </div>
         
        <nav
          class="panel is-unselectable"
        >
          <a
            class="panel-block
              has-background-white-bis
              has-text-grey
              is-expandable"
          >
            <span
              class="icon is-small panel-icon"
            >
              <font-awesome-icon
                icon="table"
              />
            </span>
            
              
            
          </a>
           
          <!---->
             
          <!---->
            
          <!---->
        </nav>
      </div>
    </aside>
     
    <div
      class="column is-three-quarters"
    >
      <div
        class="box"
      >
        <div
          class="columns is-vcentered"
        >
          <div
            class="column"
          >
            <h2
              class="title is-5"
            >
              <span>
                Results
              </span>
               
              <span
                class="has-text-weight-light has-text-grey-light is-size-7"
              >
                (1)
              </span>
            </h2>
          </div>
           
          <div
            class="column"
          >
            <div
              class="buttons has-addons is-right"
            >
              <button
                class="button tooltip is-active has-text-interactive-secondary"
                data-tooltip="Bar chart"
              >
                <span
                  class="icon is-small"
                >
                  <font-awesome-icon
                    icon="chart-bar"
                  />
                </span>
              </button>
               
              <button
                class="button tooltip has-text-grey-light"
                data-tooltip="Line chart"
              >
                <span
                  class="icon is-small"
                >
                  <font-awesome-icon
                    icon="chart-line"
                  />
                </span>
              </button>
               
              <button
                class="button tooltip has-text-grey-light"
                data-tooltip="Area chart"
              >
                <span
                  class="icon is-small"
                >
                  <font-awesome-icon
                    icon="chart-area"
                  />
                </span>
              </button>
               
              <button
                class="button tooltip has-text-grey-light"
                data-tooltip="Scatter chart"
              >
                <span
                  class="icon is-small"
                >
                  <font-awesome-icon
                    icon="dot-circle"
                  />
                </span>
              </button>
            </div>
          </div>
        </div>
         
        <div>
          <div
            class="chart-toggles"
          >
            <chart-stub
              charttype="BarChart"
              resultaggregates="region.count"
              results="[object Object]"
            />
          </div>
           
          <!---->
        </div>
         
        <hr />
         
        <div>
          <!---->
           
          <resulttable-stub />
        </div>
         
        <!---->
      </div>
    </div>
  </div>
</section>
`;

exports[`Design.vue no selections, chart, SQL, or results where the Save, Load, and Run Query buttons are disabled by default 1`] = `
<section>
  <div
    class="columns is-vcentered"
  >
    <div
      class="column is-one-quarter"
    >
      <div
        class="is-grouped is-pulled-left"
      >
        <div>
          <em>
            Untitled Report
          </em>
        </div>
      </div>
    </div>
     
    <div
      class="column"
    >
      <div
        class="field is-grouped is-pulled-right"
      >
        <!---->
         
        <div
          class="control field"
        >
          <p
            class="control"
          >
            <!---->
          </p>
           
          <p
            class="control"
          >
            <div
              class="dropdown is-right"
            >
              <div
                class="dropdown-trigger"
              >
                <button
                  aria-controls="dropdown-save-report"
                  aria-haspopup="true"
                  class="button"
                  disabled="disabled"
                >
                  <span>
                    Save Report
                  </span>
                   
                  <span
                    class="icon is-small"
                  >
                    <font-awesome-icon-stub
                      icon="caret-down"
                    />
                  </span>
                </button>
              </div>
               
              <div
                class="dropdown-menu"
                id="dropdown-save-report"
                role="menu"
              >
                <div
                  class="dropdown-content"
                >
                  <div
                    class="dropdown-item"
                  >
                    <div
                      class="field"
                    >
                      <!---->
                       
                      <div
                        class="control"
                      >
                        <input
                          class="input"
                          placeholder="Name your report"
                          type="text"
                        />
                      </div>
                    </div>
                     
                    <div
                      class="buttons is-right"
                    >
                      <button
                        class="button is-small is-text"
                        data-dropdown-auto-close=""
                      >
                        
                      Cancel
                    
                      </button>
                       
                      <button
                        class="button is-small"
                        data-dropdown-auto-close=""
                        disabled="disabled"
                      >
                        
                      Save
                    
                      </button>
                    </div>
                  </div>
                </div>
              </div>
            </div>
          </p>
        </div>
         
        <p
          class="control"
        >
          <div
            class="dropdown is-right"
          >
            <div
              class="dropdown-trigger"
            >
              <button
                aria-controls="dropdown-reports"
                aria-haspopup="true"
                class="button"
                disabled="disabled"
              >
                <span>
                  Reports
                </span>
                 
                <span
                  class="icon is-small"
                >
                  <font-awesome-icon-stub
                    icon="caret-down"
                  />
                </span>
              </button>
            </div>
             
            <div
              class="dropdown-menu"
              id="dropdown-reports"
              role="menu"
            >
              <div
                class="dropdown-content"
              />
            </div>
          </div>
        </p>
         
        <div
          class="control"
        >
          <div
            class="select"
          >
            <select
              name="connection"
            />
          </div>
        </div>
      </div>
    </div>
  </div>
   
  <div
    class="columns"
  >
    <aside
      class="column is-one-quarter"
    >
      <div
        class="box"
      >
        <div
          class="columns is-vcentered"
        >
          <div
            class="column is-two-fifths"
          >
            <h2
              class="title is-5"
            >
              Query
            </h2>
          </div>
           
          <div
            class="column is-three-fifths"
          >
            <div
              class="buttons is-right"
            >
              <div
                class="dropdown"
              >
                <div
                  class="dropdown-trigger"
                >
                  <button
                    aria-controls="dropdown-sql"
                    aria-haspopup="true"
                    class="button is-text is-small"
                    disabled="disabled"
                  >
                    <span>
                      SQL
                    </span>
                     
                    <!---->
                  </button>
                </div>
                 
                <div
                  class="dropdown-menu"
                  id="dropdown-sql"
                  role="menu"
                >
                  <div
                    class="dropdown-content"
                  >
                    <div
                      class="level"
                    >
                      <div
                        class="level-item"
                      >
                        <code>
                          
                        </code>
                      </div>
                    </div>
                  </div>
                </div>
              </div>
               
              <button
                class="button is-success"
                disabled="disabled"
              >
                
                Run
              
              </button>
            </div>
          </div>
        </div>
         
        <div
          class="columns is-vcentered"
        >
          <div
            class="column"
          >
            <div
              class="field"
            >
              <label
                class="label"
              >
                Limit
              </label>
               
              <div
                class="control is-expanded"
              >
                <input
                  class="input is-small has-text-interactive-secondary"
                  placeholder="Limit"
                  type="text"
                />
              </div>
            </div>
          </div>
           
          <div
            class="column"
          >
            <div
              class="field"
            >
              <label
                class="label"
              >
                <span>
                  Filters
                </span>
                 
                <!---->
              </label>
               
              <div
                class="control is-expanded"
              >
                <div
                  class="dropdown is-fullwidth"
                >
                  <div
                    class="dropdown-trigger"
                  >
                    <button
                      aria-controls="dropdown-none"
                      aria-haspopup="true"
                      class="button is-small "
                    >
                      <span>
                        None
                      </span>
                       
                      <span
                        class="icon is-small"
                      >
                        <font-awesome-icon-stub
                          icon="caret-down"
                        />
                      </span>
                    </button>
                  </div>
                   
                  <div
                    class="dropdown-menu dropdown-menu-600"
                    id="dropdown-none"
                    role="menu"
                  >
                    <div
                      class="dropdown-content"
                    >
                      <div
                        class="dropdown-item"
                      >
                        <div>
                          <table
                            class="table is-size-7 is-fullwidth is-narrow is-hoverable"
                          >
                            <thead>
                              <tr>
                                <th>
                                  <span>
                                    Attribute
                                  </span>
                                   
                                  <span
                                    class="icon has-text-grey-light tooltip is-tooltip-right"
                                    data-tooltip="The column or aggregate to filter."
                                  >
                                    <font-awesome-icon-stub
                                      icon="info-circle"
                                    />
                                  </span>
                                </th>
                                 
                                <th
                                  class="has-text-centered"
                                >
                                  <span>
                                    Operation
                                  </span>
                                   
                                  <span
                                    class="icon has-text-grey-light tooltip"
                                    data-tooltip="The filter expression for the selected column or aggregate."
                                  >
                                    <font-awesome-icon-stub
                                      icon="info-circle"
                                    />
                                  </span>
                                </th>
                                 
                                <th
                                  class="has-text-centered"
                                >
                                  <span>
                                    Value
                                  </span>
                                   
                                  <span
                                    class="icon has-text-grey-light tooltip"
                                    data-tooltip="The value to operate on when filtering."
                                  >
                                    <font-awesome-icon-stub
                                      icon="info-circle"
                                    />
                                  </span>
                                </th>
                                 
                                <th
                                  class="has-text-right"
                                >
                                  <span>
                                    Actions
                                  </span>
                                </th>
                              </tr>
                            </thead>
                             
                            <tbody>
                              <tr>
                                <td>
                                  <p
                                    class="control is-expanded"
                                  >
                                    <span
                                      class="select is-fullwidth is-small"
                                    >
                                      <select />
                                    </span>
                                  </p>
                                </td>
                                 
                                <td>
                                  <p
                                    class="control is-expanded"
                                  >
                                    <span
                                      class="select is-fullwidth is-small"
                                    >
                                      <select />
                                    </span>
                                  </p>
                                </td>
                                 
                                <td>
                                  <p
                                    class="control is-expanded"
                                  >
                                    <input
                                      class="input is-small"
                                      placeholder="Filter value"
                                      type="text"
                                    />
                                  </p>
                                </td>
                                 
                                <td>
                                  <div
                                    class="control"
                                  >
                                    <button
                                      class="button is-small is-fullwidth is-interactive-primary is-outlined"
                                      disabled="disabled"
                                    >
                                      
              Add
            
                                    </button>
                                  </div>
                                </td>
                              </tr>
                               
                              <!---->
                            </tbody>
                          </table>
                        </div>
                      </div>
                    </div>
                  </div>
                </div>
              </div>
            </div>
          </div>
        </div>
         
        <div
          class="field"
        >
          <label
            class="label"
          >
            <span>
              Attributes
            </span>
             
            <!---->
          </label>
        </div>
         
        <nav
          class="panel is-unselectable"
        >
          <a
            class="panel-block
              has-background-white-bis
              has-text-grey
              is-expandable"
          >
            <span
              class="icon is-small panel-icon"
            >
              <font-awesome-icon-stub
                icon="table"
              />
            </span>
            
              
            
          </a>
           
          <!---->
             
          <!---->
            
          <!---->
        </nav>
      </div>
    </aside>
     
    <div
      class="column is-three-quarters"
    >
      <div
        class="box"
      >
        <div
          class="columns is-vcentered"
        >
          <div
            class="column"
          >
            <h2
              class="title is-5"
            >
              <span>
                Results
              </span>
               
              <!---->
            </h2>
          </div>
           
          <div
            class="column"
          >
            <div
              class="buttons has-addons is-right"
            >
              <button
                class="button tooltip is-active has-text-interactive-secondary"
                data-tooltip="Bar chart"
                disabled="disabled"
              >
                <span
                  class="icon is-small"
                >
                  <font-awesome-icon-stub
                    icon="chart-bar"
                  />
                </span>
              </button>
               
              <button
                class="button tooltip has-text-grey-light"
                data-tooltip="Line chart"
                disabled="disabled"
              >
                <span
                  class="icon is-small"
                >
                  <font-awesome-icon-stub
                    icon="chart-line"
                  />
                </span>
              </button>
               
              <button
                class="button tooltip has-text-grey-light"
                data-tooltip="Area chart"
                disabled="disabled"
              >
                <span
                  class="icon is-small"
                >
                  <font-awesome-icon-stub
                    icon="chart-area"
                  />
                </span>
              </button>
               
              <button
                class="button tooltip has-text-grey-light"
                data-tooltip="Scatter chart"
                disabled="disabled"
              >
                <span
                  class="icon is-small"
                >
                  <font-awesome-icon-stub
                    icon="dot-circle"
                  />
                </span>
              </button>
            </div>
          </div>
        </div>
         
        <div>
          <!---->
           
          <div>
            <div
              class="box is-radiusless is-shadowless has-text-centered"
            >
              <p>
                
                Run a query with at least one aggregate selected or load a
                report
              
              </p>
            </div>
          </div>
        </div>
         
        <hr />
         
        <div>
          <!---->
           
          <div
            class="result-data"
          >
            <div
              class="notification is-italic"
            >
              
    No results
  
            </div>
          </div>
        </div>
         
        <!---->
      </div>
    </div>
  </div>
</section>
`;
